## Interface: 30400
## Title: Quick DKP V2 - GUI
## Author: rb@belloli.net
## Version: 2.6.7.10
## Notes: Graphical Unit Interface for QDKP V2. Needs the core addon.
## DefaultState: Enabled
## LoadOnDemand: 0
## Dependencies: QDKP_V2
## SavedVariablesPerCharacter: QDKP2_dkpPerHour,QDKP2_dkpIM,QDKP2_dkpAwardRaid,QDKP2_dkpMenuAward

Code\GUI.lua
Code\Log.lua
Code\Log.Player.lua
Code\main.lua
Code\Minimap_button.lua
Code\Misc.lua
Code\Roster.lua
Code\ToolBox.lua
Code\Init.lua
Code\LogEntryMod.lua

QDKP2_GUI.xml
